…
``` r
# Preview afinn sentiments
get_sentiments("afinn")
```

    ## # A tibble: 2,476 × 2
    ##          word score
    ##         <chr> <int>
    ## 1     abandon    -2
    ## 2   abandoned    -2
    ## 3    abandons    -2
    ## 4    abducted    -2
    ## 5   abduction    -2
    ## 6  abductions    -2
    ## 7       abhor    -3
    ## 8    abhorred    -3
    ## 9   abhorrent    -3
    ## 10     abhors    -3
    ## # ... with 2,466 more rows

``` r
# Preview bing sentiments
get_sentiments("bing")
```

    ## # A tibble: 6,788 × 2
    ##           word sentiment
    ##          <chr>     <chr>
    ## 1      2-faced  negative
    ## 2      2-faces  negative
    ## 3           a+  positive
    ## 4     abnormal  negative
    ## 5      abolish  negative
    ## 6   abominable  negative
    ## 7   abominably  negative
    ## 8    abominate  negative
    ## 9  abomination  negative
    ## 10       abort  negative
    ## # ... with 6,778 more rows

``` r
# Preview nrc sentiments
get_sentiments("nrc")
```

    ## # A tibble: 13,901 × 2
    ##           word sentiment
    ##          <chr>     <chr>
    ## 1       abacus     trust
    ## 2      abandon      fear
    ## 3      abandon  negative
    ## 4      abandon   sadness
    ## 5    abandoned     anger
    ## 6    abandoned      fear
    ## 7    abandoned  negative
    ## 8    abandoned   sadness
    ## 9  abandonment     anger
    ## 10 abandonment      fear
    ## # ... with 13,891 more rows
…
The idea of tf-idf is to find the important words for the content of each collection of comments by decreasing the weight for commonly used words and increasing the weight for words that are not used very much in an entire collection of documents, in this case all NPS comments.

> Calculating tf-idf attempts to find the words that are important (i.e., common) in a text, but not too common.

The `bind_tf_idf` function takes a tidy text dataset as input with one row per token (term), per document. One column (`word` here) contains the terms/tokens, one column contains the documents (`segment` here), and the last necessary column contains the counts, how many times each document contains each term (`n`).

``` r
# Calculate tf_idf
segment_words <- segment_words %>%
  bind_tf_idf(word, segment, n)

segment_words
```

    ## # A tibble: 12,429 × 7
    ##     segment   word     n total         tf       idf      tf_idf
    ##      <fctr>  <chr> <int> <int>      <dbl>     <dbl>       <dbl>
    ## 1  promoter   easy  4296 71078 0.06044064 0.2876821 0.017387689
    ## 2  promoter buffer  2757 71078 0.03878837 0.2876821 0.011158720
    ## 3  promoter social  2044 71078 0.02875714 0.2876821 0.008272914
    ## 4  promoter   love  1900 71078 0.02673120 0.2876821 0.007690086
    ## 5  promoter  media  1700 71078 0.02391739 0.2876821 0.006880603
    ## 6  promoter   time  1531 71078 0.02153972 0.2876821 0.006196590
    ## 7  promoter  makes   994 71078 0.01398464 0.2876821 0.004023129
    ## 8  promoter  posts   879 71078 0.01236670 0.2876821 0.003557677
    ## 9  promoter   tool   868 71078 0.01221194 0.2876821 0.003513155
    ## 10 promoter simple   846 71078 0.01190242 0.2876821 0.003424112
    ## # ... with 12,419 more rows

The `idf` and `tf_idf` will be 0 for extremely common words like "the" and "a". We've already removed these stop words from our dataset.

Let's look at words with high `tf_idf` values.

``` r
# Look at high tf_idf value words
segment_words %>%
  select(-total) %>%
  arrange(desc(tf_idf))
```

    ## # A tibble: 12,429 × 6
    ##      segment   word     n         tf       idf      tf_idf
    ##       <fctr>  <chr> <int>      <dbl>     <dbl>       <dbl>
    ## 1   promoter   easy  4296 0.06044064 0.2876821 0.017387689
    ## 2   promoter buffer  2757 0.03878837 0.2876821 0.011158720
    ## 3    passive buffer   607 0.03178676 0.2876821 0.009144481
    ## 4   promoter social  2044 0.02875714 0.2876821 0.008272914
    ## 5   promoter   love  1900 0.02673120 0.2876821 0.007690086
    ## 6  detractor buffer   326 0.02573007 0.2876821 0.007402080
    ## 7   promoter  media  1700 0.02391739 0.2876821 0.006880603
    ## 8    passive   easy   449 0.02351278 0.2876821 0.006764205
    ## 9  detractor   post   282 0.02225730 0.2876821 0.006403026
    ## 10  promoter   time  1531 0.02153972 0.2876821 0.006196590
    ## # ... with 12,419 more rows
…
    ## [1] "useful and"     "and affordable" "very easy"      "easy to"       
    ## [5] "to use"         "use and"

Great! Each token now is represented by a bigram :) Let's take a quick look at the most common bigrams.

``` r
# Count the most common bigrams
bigrams %>%
  count(bigram, sort = TRUE)
```

    ## # A tibble: 76,485 × 2
    ##          bigram     n
    ##           <chr> <int>
    ## 1        to use  3727
    ## 2       easy to  3560
    ## 3  social media  1914
    ## 4       use and  1079
    ## 5        i love  1000
    ## 6         it is   795
    ## 7     buffer is   771
    ## 8      love the   639
    ## 9       ease of   571
    ## 10       i have   568
    ## # ... with 76,475 more rows
…
# Filter out stop-words
filtered <- separated %>%
  filter(!word1 %in% stop_words$word) %>%
  filter(!word2 %in% stop_words$word)

# Calculate new bigram counts
bigram_counts <- filtered %>% 
  count(word1, word2, sort = TRUE)

bigram_counts
```

    ## Source: local data frame [16,883 x 3]
    ## Groups: word1 [4,114]
    ## 
    ##       word1    word2     n
    ##       <chr>    <chr> <int>
    ## 1    social    media  1914
    ## 2  customer  service   448
    ## 3      user friendly   369
    ## 4      love   buffer   346
    ## 5     super     easy   206
    ## 6    buffer    makes   187
    ## 7  schedule    posts   160
    ## 8     media accounts   156
    ## 9      time    saver   134
    ## 10 multiple accounts   125
    ## # ... with 16,873 more rows
…
head(bigrams_united$bigram)
```

    ## [1] "twitter accounts" "helpful service"  "listing saving"  
    ## [4] "saving system"    "easy scheduling"  "scheduling love"

Nice! Let's look at the most common bigrams.

``` r
# Find most common bigrams
bigrams_united %>%
  count(bigram, sort = TRUE)
```

    ## # A tibble: 16,883 × 2
    ##               bigram     n
    ##                <chr> <int>
    ## 1       social media  1914
    ## 2   customer service   448
    ## 3      user friendly   369
    ## 4        love buffer   346
    ## 5         super easy   206
    ## 6       buffer makes   187
    ## 7     schedule posts   160
    ## 8     media accounts   156
    ## 9         time saver   134
    ## 10 multiple accounts   125
    ## # ... with 16,873 more rows

A bigram can also be treated as a term in a document in the same way that we treated individual words. For example, we can look at the tf-idf of these bigrams across the NPS comments. These tf-idf values can be visualized within each segment, just as we did for words earlier.

``` r
# Calculate tf_idf
bigram_tf_idf <- bigrams_united %>%
  count(segment, bigram) %>%
  bind_tf_idf(bigram, segment, n) %>%
  arrange(desc(tf_idf))

bigram_tf_idf
```

    ## Source: local data frame [18,558 x 6]
    ## Groups: segment [3]
    ## 
    ##      segment           bigram     n          tf       idf      tf_idf
    ##       <fctr>            <chr> <int>       <dbl>     <dbl>       <dbl>
    ## 1   promoter     social media  1668 0.073283248 0.2876821 0.021082277
    ## 2    passive     social media   190 0.033807829 0.2876821 0.009725906
    ## 3   promoter customer service   408 0.017925399 0.2876821 0.005156816
    ## 4  detractor     social media    56 0.015748031 0.2876821 0.004530426
    ## 5   promoter    user friendly   312 0.013707658 0.2876821 0.003943447
    ## 6   promoter      love buffer   296 0.013004701 0.2876821 0.003741219
    ## 7   promoter       saves time   104 0.004569219 0.6931472 0.003167141
    ## 8   promoter        guys rock    48 0.002108870 1.3862944 0.002923515
    ## 9   promoter     makes social    83 0.003646588 0.6931472 0.002527623
    ## 10  promoter       super easy   189 0.008303677 0.2876821 0.002388819
    ## # ... with 18,548 more rows
…
-   from: the node an edge is coming from
-   to: the node an edge is going towards
-   weight: A numeric value associated with each edge

The `igraph` package has many powerful functions for manipulating and analyzing networks. One way to create an igraph object from tidy data is the `graph_from_data_frame()` function, which takes a data frame of edges with columns for “from”, “to”, and edge attributes (in this case n):

``` r
library(igraph)

# original counts
bigram_counts
```

    ## Source: local data frame [16,883 x 3]
    ## Groups: word1 [4,114]
    ## 
    ##       word1    word2     n
    ##       <chr>    <chr> <int>
    ## 1    social    media  1914
    ## 2  customer  service   448
    ## 3      user friendly   369
    ## 4      love   buffer   346
    ## 5     super     easy   206
    ## 6    buffer    makes   187
    ## 7  schedule    posts   160
    ## 8     media accounts   156
    ## 9      time    saver   134
    ## 10 multiple accounts   125
    ## # ... with 16,873 more rows
…
    ## A LDA_VEM topic model with 2 topics.

The `tidytext` package provides a method for extracting the per-topic-per-word probabilities, called β (“beta”), from the LDA model we just created, called `tidy()`.

``` r
# Tidy topics
topics <- tidy(text_lda, matrix = "beta")
topics
```

    ## # A tibble: 15,644 × 3
    ##    topic      term         beta
    ##    <int>     <chr>        <dbl>
    ## 1      1    crunch 8.236682e-06
    ## 2      2    crunch 1.160581e-05
    ## 3      1     games 1.845296e-05
    ## 4      2     games 1.394055e-06
    ## 5      1      cmon 7.280991e-06
    ## 6      2      cmon 1.256108e-05
    ## 7      1    drinks 8.522373e-06
    ## 8      2    drinks 1.132025e-05
    ## 9      1 approvers 1.764853e-05
    ## 10     2 approvers 2.198129e-06
    ## # ... with 15,634 more rows
…
