…
    ## [1] "location i"     "i currently"    "currently live" "live in"       
    ## [5] "in a"           "a city"

And now let's look at the most common bigrams.

``` r
# Count the most common bigrams
bigrams %>%
  count(bigram, sort = TRUE)
```

    ## # A tibble: 1,569 x 2
    ##            bigram     n
    ##             <chr> <int>
    ##  1         in the    11
    ##  2        cost of     8
    ##  3      of living     7
    ##  4          to be     7
    ##  5           in a     6
    ##  6 salary formula     6
    ##  7         to see     6
    ##  8          a lot     5
    ##  9        i think     5
    ## 10          if we     5
    ## # ... with 1,559 more rows
…
# Calculate new bigram counts
bigram_counts <- filtered %>% 
  count(word1, word2, sort = TRUE)

bigram_counts
```

    ## Source: local data frame [173 x 3]
    ## Groups: word1 [137]
    ## 
    ## # A tibble: 173 x 3
    ##          word1        word2     n
    ##          <chr>        <chr> <int>
    ##  1      salary      formula     6
    ##  2      market         rate     5
    ##  3     current      formula     3
    ##  4    location       factor     3
    ##  5 compensated      equally     2
    ##  6     current       salary     2
    ##  7         job       market     2
    ##  8      market        rates     2
    ##  9        rate fluctuations     2
    ## 10       skill        level     2
    ## # ... with 163 more rows

Looking better! Now lets us recombine the columns into one and look at the *new* most common bigrams

``` r
# Reunite the words
bigrams_united <- filtered %>%
  unite(bigram, word1, word2, sep = " ")

# Find most common bigrams
bigrams_united %>%
  count(bigram, sort = TRUE)
```

    ## # A tibble: 173 x 2
    ##                 bigram     n
    ##                  <chr> <int>
    ##  1      salary formula     6
    ##  2         market rate     5
    ##  3     current formula     3
    ##  4     location factor     3
    ##  5 compensated equally     2
    ##  6      current salary     2
    ##  7          job market     2
    ##  8        market rates     2
    ##  9   rate fluctuations     2
    ## 10         skill level     2
    ## # ... with 163 more rows
…
Let's give it a shot.

``` r
# Load igraph library
library(igraph)

# Original counts
bigram_counts
```

    ## Source: local data frame [173 x 3]
    ## Groups: word1 [137]
    ## 
    ## # A tibble: 173 x 3
    ##          word1        word2     n
    ##          <chr>        <chr> <int>
    ##  1      salary      formula     6
    ##  2      market         rate     5
    ##  3     current      formula     3
    ##  4    location       factor     3
    ##  5 compensated      equally     2
    ##  6     current       salary     2
    ##  7         job       market     2
    ##  8      market        rates     2
    ##  9        rate fluctuations     2
    ## 10       skill        level     2
    ## # ... with 163 more rows
…
