…
Determine update types
----------------------

Let's quickly examine the different values of `full_scope`.

``` r
updates %>%
  group_by(full_scope) %>%
  summarise(count = n()) %>%
  arrange(desc(count))
```

    ## # A tibble: 35 x 2
    ##                                                         full_scope count
    ##                                                              <chr> <int>
    ##  1                         dashboard updates shared composer later 43150
    ##  2                      dashboard updates shared composer schedule 41994
    ##  3      extension composer multiple-composers updates shared later 32200
    ##  4                           dashboard updates shared composer now 30206
    ##  5        extension composer multiple-composers updates shared now 15639
    ##  6               dashboard updates shared composer schedule pinned 13068
    ##  7                dashboard updates shared composer later rebuffer 10780
    ##  8   extension composer multiple-composers updates shared schedule  9127
    ##  9             dashboard updates shared composer schedule rebuffer  4079
    ## 10 extension composer multiple-composers updates shared later next  4028
    ## # ... with 25 more rows
…
